…
    ## starting httpd help server ...

    ##  done

Gathers flights that were more than 2hrs later departing into a new data
frame

``` r
##gather flights that are at least 2hrs late
flights_2hr_late <- filter(flights, dep_delay >= 120)
print(flights_2hr_late)
```

    ## # A tibble: 9,888 x 19
    ##     year month   day dep_time sched_dep_time dep_delay arr_time sched_arr_time
    ##    <int> <int> <int>    <int>          <int>     <dbl>    <int>          <int>
    ##  1  2013     1     1      848           1835       853     1001           1950
    ##  2  2013     1     1      957            733       144     1056            853
    ##  3  2013     1     1     1114            900       134     1447           1222
    ##  4  2013     1     1     1540           1338       122     2020           1825
    ##  5  2013     1     1     1815           1325       290     2120           1542
    ##  6  2013     1     1     1842           1422       260     1958           1535
    ##  7  2013     1     1     1856           1645       131     2212           2005
    ##  8  2013     1     1     1934           1725       129     2126           1855
    ##  9  2013     1     1     1938           1703       155     2109           1823
    ## 10  2013     1     1     1942           1705       157     2124           1830
    ## # ... with 9,878 more rows, and 11 more variables: arr_delay <dbl>,
    ## #   carrier <chr>, flight <int>, tailnum <chr>, origin <chr>, dest <chr>,
    ## #   air_time <dbl>, distance <dbl>, hour <dbl>, minute <dbl>, time_hour <dttm>

Creates and new data frame with airline and flight number combined in a
new column

``` r
##flights with combined airline and flight number
flights_airline_num <- mutate(flights, airline_flight_num = paste0(carrier, flight))
print(flights_airline_num)
```

    ## # A tibble: 336,776 x 20
    ##     year month   day dep_time sched_dep_time dep_delay arr_time sched_arr_time
    ##    <int> <int> <int>    <int>          <int>     <dbl>    <int>          <int>
    ##  1  2013     1     1      517            515         2      830            819
    ##  2  2013     1     1      533            529         4      850            830
    ##  3  2013     1     1      542            540         2      923            850
    ##  4  2013     1     1      544            545        -1     1004           1022
    ##  5  2013     1     1      554            600        -6      812            837
    ##  6  2013     1     1      554            558        -4      740            728
    ##  7  2013     1     1      555            600        -5      913            854
    ##  8  2013     1     1      557            600        -3      709            723
    ##  9  2013     1     1      557            600        -3      838            846
    ## 10  2013     1     1      558            600        -2      753            745
    ## # ... with 336,766 more rows, and 12 more variables: arr_delay <dbl>,
    ## #   carrier <chr>, flight <int>, tailnum <chr>, origin <chr>, dest <chr>,
    ## #   air_time <dbl>, distance <dbl>, hour <dbl>, minute <dbl>, time_hour <dttm>,
    ## #   airline_flight_num <chr>
…
``` r
## group flight data by tailnumber then by carrier
tail_num_group <- group_by(flights, tailnum, carrier)

## make tibble showing flights per carrier for each tailnumber aka number_of_flights
tail_num_carriers = summarize(tail_num_group, number_of_flights = n() )
```

    ## `summarise()` regrouping output by 'tailnum' (override with `.groups` argument)

``` r
print (tail_num_carriers)
```

    ## # A tibble: 4,067 x 3
    ## # Groups:   tailnum [4,044]
    ##    tailnum carrier number_of_flights
    ##    <chr>   <chr>               <int>
    ##  1 D942DN  DL                      4
    ##  2 N0EGMQ  MQ                    371
    ##  3 N10156  EV                    153
    ##  4 N102UW  US                     48
    ##  5 N103US  US                     46
    ##  6 N104UW  US                     47
    ##  7 N10575  EV                    289
    ##  8 N105UW  US                     45
    ##  9 N107US  US                     41
    ## 10 N108UW  US                     60
    ## # ... with 4,057 more rows
