…
As expected, this plot is a mess. The most visited destinations would
likely have the most significance in a real world scenario, so let’s
start there.

We cans start by sorting our data set by flight numbers to get a quick
overview.

``` r
sort_flights <- dest_data[order(-dest_data[,3]),]
print(sort_flights)
```

    ## # A tibble: 1,113 x 3
    ## # Groups:   dest [105]
    ##    dest  month number_of_flights
    ##    <chr> <int>             <int>
    ##  1 ORD       8              1604
    ##  2 ORD      10              1604
    ##  3 ORD       5              1582
    ##  4 ORD       9              1582
    ##  5 ORD       7              1573
    ##  6 ORD       6              1547
    ##  7 ATL       7              1511
    ##  8 ATL       8              1507
    ##  9 LAX       8              1505
    ## 10 LAX       7              1500
    ## # ... with 1,103 more rows
…
